{
    "report_details": {
        "report_name": "RC4",
        "zo_description": "Test Automation",
        "business_owner": "HRUSER",
        "business_owner_det": "HRUSER USER",
        "comment": "Test Comment"
    }
    
}