{
  "access_token": "ya29.a0AVvZVsoKLWd2W1LVyVSWg27DD75sqEWcWM7cOyXrvWSE2iLNI9_ewoU1THsTfacIlu8llZM0J4JK_1G2GeKPZGAqvLOB0Z4T1423ArLQdclmhlZs59l8Zzq53gfIYA3MvO874YHPpK4SUi3JUD5t1o6Ivy91aCgYKAU0SARESFQGbdwaIiDSJIoFNwh20sA06nyqshA0163",
  "refresh_token": "1//0gDtg_zCLqCISCgYIARAAGBASNwF-L9IrHq7b4rIL-M6y5aL2Ysxv_Mx9r5vCsARs0PFH3sUTjsWRGoosToGmsdtZ-hlWMOK5SEI",
  "scope": "https://www.googleapis.com/auth/gmail.readonly",
  "token_type": "Bearer",
  "expiry_date": 1674775868330
}
