2024-01-12 15-04-34 Executing beforeEach hook
2024-01-12 15-05-11 Executing beforeEach hook
2024-01-12 15-05-11 TC-032_1 TC-00001_Verify creating a new Tableau Connection
2024-01-12 15-05-11 Wait: 5000 milliseconds
2024-01-12 15-05-11 Open Menu: Menu opened successfully
2024-01-12 15-05-11 Clicking on Administrator Settings
2024-01-12 15-05-11 Clicking on Source Connection settings
2024-01-12 15-05-11 Clicking on body
2024-01-12 15-05-11 Adding details to creatte Test Connection
2024-01-12 15-05-11 Executing beforeEach hook
2024-01-12 15-05-11 Add report type for Tableau
2024-01-12 15-05-11 Wait: 5000 milliseconds
2024-01-12 15-05-11 Open Menu: Menu opened successfully
2024-01-12 15-05-11 Clicking on Administrator Settings
2024-01-12 15-05-11 Clicking on Report type testing
2024-01-12 15-05-11 Clicking on page body
2024-01-12 15-05-11 Typing "Tableau" in the search field for report types
2024-01-12 15-05-11 Clicking on edit row
2024-01-12 15-05-11 Wait: 1500 milliseconds
2024-01-12 15-05-11 Editing launch URL and thumbnail URL for Report Type
2024-01-12 15-05-11 Clicking on the submit button to save changes
2024-01-12 15-05-11 Verifying success message for Report Type edit
2024-01-12 15-05-11 Executing beforeEach hook
2024-01-12 15-05-11 TC-0001_Run Complete Tableau Connection
2024-01-12 15-05-11 Wait: 5000 milliseconds
2024-01-12 15-05-11 Open Menu: Menu opened successfully
2024-01-12 15-05-11 Clicking on Administrator Settings
2024-01-12 15-05-11 Clicking on Source Connection settings
2024-01-12 15-05-11 Clicking on body
2024-01-12 15-05-11 Clicking on the search connection icon
2024-01-12 15-05-11 Typing connection name in the search field: Tableau_C8
2024-01-12 15-05-11 Selecting the 4th table in the search results
2024-01-12 15-05-11 Initiating Tableau run by clicking on the Run Complete button
2024-01-12 15-05-11 Verifying toaster notification for run initiation
2024-01-12 15-05-11 Waiting for Tableau run to complete (timeout: 800000 milliseconds)
2024-01-12 15-05-11 Executing beforeEach hook
2024-01-12 15-05-11 TC-0001_Run  Tableau Connection
2024-01-12 15-05-11 Wait: 5000 milliseconds
2024-01-12 15-05-11 Open Menu: Menu opened successfully
2024-01-12 15-05-11 Clicking on Administrator Settings
2024-01-12 15-05-11 Clicking on Source Connection settings
2024-01-12 15-05-11 Clicking on body
2024-01-12 15-05-11 Clicking on the search connection icon
2024-01-12 15-05-11 Typing connection name in the search field: Tableau_C8
2024-01-12 15-05-11 Selecting the 4th table in the search results
2024-01-12 15-05-11 Initiating Tableau run by clicking on the Run Complete button
2024-01-12 15-05-11 Verifying toaster notification for run initiation
2024-01-12 15-05-11 Waiting for Tableau run to complete (timeout: 800000 milliseconds)
2024-01-12 15-05-11 Executing beforeEach hook
2024-01-12 15-05-11 Add category to whatsNew
2024-01-12 15-05-11 Wait: 5000 milliseconds
2024-01-12 15-05-11 Open Menu: Menu opened successfully
2024-01-12 15-05-11 Clicking on Administrator Settings
2024-01-12 15-05-11 Clicking on Steward Management
2024-01-12 15-05-11 Clicking on Categorized Reports
2024-01-12 15-05-11 Executing beforeEach hook
2024-01-12 15-05-11 TC-001_Verify Links in the Side Panel are displayed properly (ZEN2022-TC-43)
2024-01-12 15-05-11 Wait: 5000 milliseconds
2024-01-12 15-05-11 Open Menu: Menu opened successfully
2024-01-12 15-05-11 Wait: 2000 milliseconds
2024-01-12 15-05-11 Side menu links verified successfully
2024-01-12 15-05-11 Side menu links verified successfully
2024-01-12 15-05-11 Side menu links verified successfully
2024-01-12 15-05-11 Side menu links verified successfully
2024-01-12 15-05-11 Side menu links verified successfully
2024-01-12 15-05-11 Side menu links verified successfully
2024-01-12 15-05-11 Side menu links verified successfully
2024-01-12 15-05-11 Side menu links verified successfully
2024-01-12 15-05-11 Side menu links verified successfully
2024-01-12 15-05-11 Executing beforeEach hook
2024-01-12 15-05-11 TC-0001_Run Complete Tableau ConnectionTC-002_1 Verify clicking on all the links on left nav bar expect Reports (ZEN2022-TC-44)
2024-01-12 15-05-11 Wait: 5000 milliseconds
2024-01-12 15-05-11 Open Menu: Menu opened successfully
2024-01-12 15-05-11 Clicking on navbar link: Categories
2024-01-12 15-05-11 Verifying URL includes: /categories
2024-01-12 15-05-11 Clicking on navbar link: Workflows
2024-01-12 15-05-11 Verifying URL includes: /workflows
2024-01-12 15-05-11 Clicking on navbar link: BI Glossary
2024-01-12 15-05-11 Verifying URL includes: /biglossary
2024-01-12 15-05-11 Executing beforeEach hook
2024-01-12 15-05-11 TC-002_2 Verify clicking Reports and its sub links (ZEN2022-TC-44)
2024-01-12 15-05-11 Wait: 5000 milliseconds
2024-01-12 15-05-11 Open Menu: Menu opened successfully
2024-01-12 15-05-11 Getting the text of all side menu links
2024-01-12 15-05-11 Clicking on navbar link: My Reports
2024-01-12 15-05-11 Verifying URL includes: /myReports
2024-01-12 15-05-11 Clicking on navbar link: Favorites
2024-01-12 15-05-11 Verifying URL includes: /favorites
2024-01-12 15-05-11 Clicking on navbar link: What's New
2024-01-12 15-05-11 Verifying URL includes: /whatsNew
2024-01-12 15-05-11 Clicking on navbar link: Recently Viewed
2024-01-12 15-05-11 Verifying URL includes: /recentlyViewed
2024-01-12 15-05-11 Executing beforeEach hook
2024-01-12 15-05-11 TC-003 Verify performing search for a Report from Search bar (ZEN2022-TC-45)
2024-01-12 15-05-11 Wait: 2000 milliseconds
2024-01-12 15-05-11 Clicking on the global search input field, Clearing the existing text, Typing "Document.docx" into the global search input field
2024-01-12 15-05-11 Executing beforeEach hook
2024-01-12 15-05-11 TC-005 Verify manual upload thumbnail generation
2024-01-12 15-05-11 Wait: 5000 milliseconds
2024-01-12 15-05-11 Open Menu: Menu opened successfully
2024-01-12 15-05-11 Clicking on Administrator Settings
2024-01-12 15-05-11 Clicking on Application Settings
2024-01-12 15-05-11 Clicking on Thumbnail Settings
2024-01-12 15-05-11 Typed Document.docx in the search input for thumbnail settings
2024-01-12 15-05-11 Verified that the search card has the expected text
2024-01-12 15-05-11 Selected file at path: C:\Users\Ankitha\cypressautomation\cypress\fixtures\companylogo.svg
2024-01-12 15-05-11 Clicked on "Upload Thumbnail Images" button
2024-01-12 15-05-11 Verified that the state column contains "Admin Uploaded"
2024-01-12 15-05-11 Executing beforeEach hook
2024-01-12 15-05-11 TC-010 Verify if the fields in BI Dictionary are showing report using this field and authorized user
2024-01-12 15-05-11 Wait: 5000 milliseconds
2024-01-12 15-05-11 Open Menu: Menu opened successfully
2024-01-12 15-05-11 Clicking on Steward Manegement
2024-01-12 15-05-11 Clicking on Bi Dictionary
2024-01-12 15-05-11 Wait: 2000 milliseconds
2024-01-12 15-05-11 Typed "Author" in the search field on the first page
2024-01-12 15-05-11 Wait: for 1000 milliseconds
2024-01-12 15-05-11 Verified that the search card contains "Author"
2024-01-12 15-05-11 Clicked on the action column
2024-01-12 15-05-11 Clicked on the search field on the first page 
2024-01-12 15-05-11 Typed "A_WS_1212_app" in the search field on the second page
2024-01-12 15-05-11 Verified that the search card contains "A_WS_1212_app"
2024-01-12 15-05-11 Wait: 1000 milliseconds
2024-01-12 15-05-11 Clicked on the authorized user button
2024-01-12 15-05-11 Clicked on the pagination drop-down
2024-01-12 15-05-11 Verified that the authorized user list has 4 items
2024-01-12 15-05-11 Executing beforeEach hook
2024-01-12 15-05-11 TC-011 Verify if the fields in BI Glossary are showing report using this field
2024-01-12 15-05-11 Wait: 5000 milliseconds
2024-01-12 15-05-11 Open Menu: Menu opened successfully
2024-01-12 15-05-11 Clicking on Steward Manegement
2024-01-12 15-05-11 Clicking on Bi Dictionary
2024-01-12 15-05-11 Typed "Author" in the search field on the first page
2024-01-12 15-05-11 Verified that the search card contains "Author"
2024-01-12 15-05-11 Clicked on the approved checkbox
2024-01-12 15-05-11 Clicking on the update button
2024-01-12 15-05-11 Wait: 5000 milliseconds
2024-01-12 15-05-11 Open Menu: Menu opened successfully
2024-01-12 15-05-11 Getting the text of all side menu links
2024-01-12 15-05-11 Executing beforeEach hook
2024-01-12 15-05-11 TC-011 Verify if the fields in BI Glossary are showing report using this field
2024-01-12 15-05-11 Wait: 5000 milliseconds
2024-01-12 15-05-11 Open Menu: Menu opened successfully
2024-01-12 15-05-11 Clicking on Steward Manegement
2024-01-12 15-05-11 Clicking on Bi Dictionary
2024-01-12 15-05-11 Typed "Author" in the search field on the first page
2024-01-12 15-05-11 Verified that the search card contains "Author"
2024-01-12 15-05-11 Clicked on the approved checkbox
2024-01-12 15-05-11 Clicking on the update button
2024-01-12 15-05-11 Wait: 5000 milliseconds
2024-01-12 15-05-11 Open Menu: Menu opened successfully
2024-01-12 15-05-11 Getting the text of all side menu links
2024-01-12 15-05-11 Executing beforeEach hook
2024-01-12 15-05-11 TC_012 Launch Few Report & see there is no error
2024-01-12 15-05-11 Wait: 5000 milliseconds
2024-01-12 15-05-11 Open Menu: Menu opened successfully
2024-01-12 15-05-11 Getting the text of all side menu links
2024-01-12 15-05-11 Wait: 2000 milliseconds
2024-01-12 15-05-11 Clicking on the global search input field, Clearing the existing text, Typing "Document - Copy.docx" into the global search input field
Click on searched first report: Document - Copy.docx
2024-01-12 15-05-11 Wait: 5000 milliseconds
2024-01-12 15-05-11 Open Menu: Menu opened successfully
2024-01-12 15-05-11 Getting the text of all side menu links
2024-01-12 15-05-11 Executing beforeEach hook
2024-01-12 15-05-11 Wait: 5000 milliseconds
2024-01-12 15-05-11 Open Menu: Menu opened successfully
2024-01-12 15-05-11 Click on Home Icon
2024-01-12 15-05-11 Checked favorite display for report: Document.docx 
2024-01-12 15-05-11 Wait: 2000 milliseconds
2024-01-12 15-05-11 Clicking on the global search input field, Clearing the existing text, Typing "Document.docx " into the global search input field
Click on searched first report: Document.docx 
2024-01-12 15-05-11 Wait: 5000 milliseconds
2024-01-12 15-05-11 Open Menu: Menu opened successfully
2024-01-12 15-05-11 Click on Home Icon
2024-01-12 15-05-11 Checked favorite display for report: Document.docx 
2024-01-12 15-05-11 Executing beforeEach hook
2024-01-12 15-05-11 TC-014_Verify Creating a WF and share the WF with some user and see if the email is sent out
2024-01-12 15-05-11 Wait: 2000 milliseconds
2024-01-12 15-05-11 Clicking on the global search input field, Clearing the existing text, Typing "Document.docx" into the global search input field
Click on searched first report: Document.docx
2024-01-12 15-05-11 Clicking on save Button
2024-01-12 15-05-11 Clicking on next Button
2024-01-12 15-05-11 Type Cypresss_Test_WF_Jan123 to save workflow
2024-01-12 15-05-11 Executing beforeEach hook
2024-01-12 15-05-11 TC-014_Verify Creating a WF and share the WF with some user and see if the email is sent out
2024-01-12 15-05-11 Wait: 2000 milliseconds
2024-01-12 15-05-11 Clicking on the global search input field, Clearing the existing text, Typing "Document.docx" into the global search input field
Click on searched first report: Document.docx
2024-01-12 15-05-11 Clicking on save Button
2024-01-12 15-05-11 Clicking on next Button
2024-01-12 15-05-11 Type Cypresss_Test_WF_Jan123 to save workflow
2024-01-12 15-05-11 Executing beforeEach hook
2024-01-12 15-05-11 TC-015 Subscribe to a report and add public and private comments and see if the subscribed user gets the email notification on public comment
2024-01-12 15-05-11 Wait: 2000 milliseconds
