02-02-2024--14-50-07 Executing beforeEach hook
02-02-2024--14-50-28 Executing beforeEach hook
02-02-2024--14-50-36 TC-036 Verify the thumbnail attributes across different widgets in the Dashboard
02-02-2024--14-50-36 Finding report header and navigating to the first child mat-icon
02-02-2024--14-50-40 Checking if the mat-tooltip attribute is Unfavorite
02-02-2024--14-50-41 Clicking on Unfavourite report 
02-02-2024--14-50-36 Clicking on favourite report
02-02-2024--14-50-36 Click on Report About section
02-02-2024--14-50-36 Click on Home Icon
02-02-2024--14-50-36  Wait: 5000 milliseconds
02-02-2024--14-50-36 Open Menu: Menu opened successfully
02-02-2024--14-50-36 Click on Home Icon
02-02-2024--14-50-36  Wait: 5000 milliseconds
02-02-2024--14-50-36 Open Menu: Menu opened successfully
02-02-2024--14-50-36 Click on Home Icon
02-02-2024--14-51-45 undefined
