01-25-2024--18-13-25 Executing beforeEach hook
01-25-2024--18-13-40 Executing beforeEach hook
01-25-2024--18-14-15 TC_0002 Add category to whatsNew
01-25-2024--18-14-15  Wait: 5000 milliseconds
01-25-2024--18-14-15 Open Menu: Menu opened successfully
01-25-2024--18-14-15 Clicking on Administrator Settings
01-25-2024--18-14-15 Clicking on Steward Management
01-25-2024--18-14-15 Clicking on Categorized Reports
01-25-2024--18-14-27 Executing beforeEach hook
01-25-2024--18-14-52 TC-001_Verify Links in the Side Panel are displayed properly (ZEN2022-TC-43)
01-25-2024--18-14-52  Wait: 5000 milliseconds
01-25-2024--18-14-52 Open Menu: Menu opened successfully
01-25-2024--18-14-52 Wait: 2000 milliseconds
01-25-2024--18-15-01 Side menu links verified successfully
01-25-2024--18-15-01 Side menu links verified successfully
01-25-2024--18-15-01 Side menu links verified successfully
01-25-2024--18-15-01 Side menu links verified successfully
01-25-2024--18-15-01 Side menu links verified successfully
01-25-2024--18-15-01 Side menu links verified successfully
01-25-2024--18-15-01 Side menu links verified successfully
01-25-2024--18-15-01 Side menu links verified successfully
01-25-2024--18-15-01 Side menu links verified successfully
01-25-2024--18-15-01 Side menu links verified successfully
01-25-2024--18-15-01 Side menu links verified successfully
01-25-2024--18-15-02 Executing beforeEach hook
01-25-2024--18-15-26 TC-002_1 Verify clicking on all the links on left nav bar expect Reports (ZEN2022-TC-44)
01-25-2024--18-15-26  Wait: 5000 milliseconds
01-25-2024--18-15-26 Open Menu: Menu opened successfully
01-25-2024--18-15-32  Clicking on navbar link: Categories
01-25-2024--18-15-32 Verifying URL includes: /categories
01-25-2024--18-15-32  Clicking on navbar link: Workflows
01-25-2024--18-15-32 Verifying URL includes: /workflows
01-25-2024--18-15-32  Clicking on navbar link: BI Glossary
01-25-2024--18-15-32 Verifying URL includes: /biglossary
01-25-2024--18-15-43 Executing beforeEach hook
01-25-2024--18-16-00 TC-002_2 Verify clicking Reports and its sub links (ZEN2022-TC-44)
01-25-2024--18-16-00  Wait: 5000 milliseconds
01-25-2024--18-16-00 Open Menu: Menu opened successfully
01-25-2024--18-16-00 Getting the text of all side menu links
01-25-2024--18-16-07  Clicked on side menu link: Reports
01-25-2024--18-16-07  Clicking on navbar link: My Reports
01-25-2024--18-16-07 Verifying URL includes: /myReports
01-25-2024--18-16-07  Clicking on navbar link: Favorites
01-25-2024--18-16-07 Verifying URL includes: /favorites
01-25-2024--18-16-07  Clicking on navbar link: What's New
01-25-2024--18-16-07 Verifying URL includes: /whatsNew
01-25-2024--18-16-07  Clicking on navbar link: Recently Viewed
01-25-2024--18-16-07 Verifying URL includes: /recentlyViewed
01-25-2024--18-16-22 Executing beforeEach hook
01-25-2024--18-16-36 TC-003 Verify performing search for a Report from Search bar (ZEN2022-TC-45)
01-25-2024--18-16-37 Wait: 2000 milliseconds
01-25-2024--18-16-37  Clicking on the global search input field, Clearing the existing text, Typing "Global Analysis" into the global search input field
01-25-2024--18-16-45 Executing beforeEach hook
01-25-2024--18-17-02 TC-004 Verify all the 3 views (List, Grid, Thumbnail) in My Reports, Favorites, What's New, Recently Viewed
01-25-2024--18-17-02  Wait: 5000 milliseconds
01-25-2024--18-17-02 Open Menu: Menu opened successfully
01-25-2024--18-17-02 Getting the text of all side menu links
01-25-2024--18-17-08  Clicked on side menu link: Reports
01-25-2024--18-17-02  Clicking on the "My Reports" tab
01-25-2024--18-17-02 Clicking on the Thumbnail View
01-25-2024--18-17-02 Verifying the existence of the Thumbnail Container
01-25-2024--18-17-02 Clicking on the List View
01-25-2024--18-17-02 Verifying the existence of the List Container
01-25-2024--18-17-02 Clicking on the Grid View
01-25-2024--18-17-02 Verifying the existence of the Grid Container
01-25-2024--18-17-02  Wait: 5000 milliseconds
01-25-2024--18-17-02 Open Menu: Menu opened successfully
01-25-2024--18-17-02 Getting the text of all side menu links
01-25-2024--18-17-16  Clicked on side menu link: Reports
01-25-2024--18-17-02  Clicking on the "Favorites" tab
01-25-2024--18-17-02 Clicking on the Thumbnail View
01-25-2024--18-17-02 Verifying the existence of the Thumbnail Container
01-25-2024--18-17-02 Clicking on the List View
01-25-2024--18-17-02 Verifying the existence of the List Container
01-25-2024--18-17-02 Clicking on the Grid View
01-25-2024--18-17-02 Verifying the existence of the Grid Container
01-25-2024--18-17-02  Wait: 5000 milliseconds
01-25-2024--18-17-02 Open Menu: Menu opened successfully
01-25-2024--18-17-02 Getting the text of all side menu links
01-25-2024--18-17-22  Clicked on side menu link: Reports
01-25-2024--18-17-02  Clicking on the "What's New" tab
01-25-2024--18-17-02 Clicking on the Thumbnail View
01-25-2024--18-17-02 Verifying the existence of the Thumbnail Container
01-25-2024--18-17-02 Clicking on the List View
01-25-2024--18-17-02 Verifying the existence of the List Container
01-25-2024--18-17-02 Clicking on the Grid View
01-25-2024--18-17-02 Verifying the existence of the Grid Container
01-25-2024--18-17-02  Wait: 5000 milliseconds
01-25-2024--18-17-02 Open Menu: Menu opened successfully
01-25-2024--18-17-02 Getting the text of all side menu links
01-25-2024--18-17-28  Clicked on side menu link: Reports
01-25-2024--18-17-02  Clicking on the "Recently Viewed" tab
01-25-2024--18-17-02 Clicking on the Thumbnail View
01-25-2024--18-17-02 Verifying the existence of the Thumbnail Container
01-25-2024--18-17-02 Clicking on the List View
01-25-2024--18-17-02 Verifying the existence of the List Container
01-25-2024--18-17-02 Clicking on the Grid View
01-25-2024--18-17-02 Verifying the existence of the Grid Container
01-25-2024--18-17-32 Executing beforeEach hook
01-25-2024--18-17-52 TC-005 Verify manual upload thumbnail generation
01-25-2024--18-17-52  Wait: 5000 milliseconds
01-25-2024--18-17-52 Open Menu: Menu opened successfully
01-25-2024--18-17-52 Clicking on Administrator Settings
01-25-2024--18-17-52 Clicking on Application Settings
01-25-2024--18-17-52 Clicking on Thumbnail Settings
01-25-2024--18-17-52 Typed Cash Flow - Plan in the search input for thumbnail settings
01-25-2024--18-17-52 Verified that the search card has the expected text
01-25-2024--18-17-52 Selected file at path: C:\Users\Ankitha\cypressautomation\cypress\fixtures\companylogo.svg
01-25-2024--18-17-52 Clicked on "Upload Thumbnail Images" button
01-25-2024--18-17-52 Verified that the state column contains "Admin Uploaded"
01-25-2024--18-18-05 Executing beforeEach hook
01-25-2024--18-18-19 TC-010 Verify if the fields in BI Dictionary are showing report using this field and authorized user.
01-25-2024--18-18-19  Wait: 5000 milliseconds
01-25-2024--18-18-19 Open Menu: Menu opened successfully
01-25-2024--18-18-19 Clicking on Steward Manegement
01-25-2024--18-18-19 Clicking on Bi Dictionary
01-25-2024--18-18-19 Wait: 2000 milliseconds
01-25-2024--18-18-19 Typed "Account Drill" in the search field on the first page
01-25-2024--18-18-19 Wait: for 1000 milliseconds
01-25-2024--18-18-19 Verified that the search card contains "Account Drill"
01-25-2024--18-18-19 Clicked on the action column
01-25-2024--18-18-19 Clicked on the search field on the first page
01-25-2024--18-18-19 Typed " Sales Analysis " in the search field on the second page
01-25-2024--18-18-19 Verified that the search card contains " Sales Analysis "
01-25-2024--18-18-19 Wait: 1000 milliseconds
01-25-2024--18-18-19 Clicked on the authorized user button
01-25-2024--18-18-19 Clicked on the pagination drop-down
01-25-2024--18-18-19  Verified that the authorized user list has 28 items
01-25-2024--18-18-35 Executing beforeEach hook
01-25-2024--18-18-47 TC-011 Verify if the fields in BI Glossary are showing report using this field
01-25-2024--18-18-47  Wait: 5000 milliseconds
01-25-2024--18-18-47 Open Menu: Menu opened successfully
01-25-2024--18-18-47 Clicking on Steward Manegement
01-25-2024--18-18-47 Clicking on Bi Dictionary
01-25-2024--18-18-47  Typed "Account Drill" in the search field on the first page
01-25-2024--18-18-47  Verified that the search card contains "Account Drill"
01-25-2024--18-18-47 Clicked on the approved checkbox
01-25-2024--18-18-47 Clicking on the update button
01-25-2024--18-18-47  Wait: 5000 milliseconds
01-25-2024--18-18-47 Open Menu: Menu opened successfully
01-25-2024--18-18-47 Getting the text of all side menu links
01-25-2024--18-19-00  Clicked on side menu link: BI Glossary
01-25-2024--18-19-03 Executing beforeEach hook
01-25-2024--18-19-21 TC_012 Launch Few Report & see there is no error
01-25-2024--18-19-21  Wait: 5000 milliseconds
01-25-2024--18-19-21 Open Menu: Menu opened successfully
01-25-2024--18-19-21  Wait: 5000 milliseconds
01-25-2024--18-19-21 Open Menu: Menu opened successfully
01-25-2024--18-19-21  Wait: 5000 milliseconds
01-25-2024--18-19-21 Open Menu: Menu opened successfully
01-25-2024--18-19-21  Wait: 5000 milliseconds
01-25-2024--18-19-21 Open Menu: Menu opened successfully
01-25-2024--18-19-21  Wait: 5000 milliseconds
01-25-2024--18-19-21 Open Menu: Menu opened successfully
01-25-2024--18-20-16 Executing beforeEach hook
01-25-2024--18-20-25 TC_013 Mark some reports as favorites and see if they show up on dashboard
01-25-2024--18-20-25  Wait: 5000 milliseconds
01-25-2024--18-20-25 Open Menu: Menu opened successfully
01-25-2024--18-20-25  Wait: 5000 milliseconds
01-25-2024--18-20-25 Open Menu: Menu opened successfully
01-25-2024--18-20-25 Toggle report favorites on: 0
01-25-2024--18-20-47 Unfavoriting report: 0
01-25-2024--18-20-25 Favoriting report: 0
01-25-2024--18-20-25 Click on Home Icon
01-25-2024--18-20-25  Checked favorite display for report: 2305Data1 
01-25-2024--18-20-25  Wait: 5000 milliseconds
01-25-2024--18-20-25 Open Menu: Menu opened successfully
01-25-2024--18-20-25 Toggle report favorites on: 1
01-25-2024--18-21-13 Unfavoriting report: 1
01-25-2024--18-20-25 Favoriting report: 1
01-25-2024--18-20-25 Click on Home Icon
01-25-2024--18-20-25  Checked favorite display for report: Test 
01-25-2024--18-21-23 Executing beforeEach hook
01-25-2024--18-21-28 Executing beforeEach hook
01-25-2024--18-21-32 TC-014_1 Share WF with a group and make sure that the group is getting decomposed to its members after saving.
01-25-2024--18-21-32  Wait: 5000 milliseconds
01-25-2024--18-21-32 Open Menu: Menu opened successfully
01-25-2024--18-21-32 Getting the text of all side menu links
01-25-2024--18-21-38  Clicked on side menu link: Workflow
01-25-2024--18-21-39 Executing beforeEach hook
01-25-2024--18-21-53 TC-015 Subscribe to a report and add public and private comments and see if the subscribed user gets the email notification on public comment
01-25-2024--18-21-53 Wait: 2000 milliseconds
01-25-2024--18-21-53  Clicking on the global search input field, Clearing the existing text, Typing "Dashboard" into the global search input field
01-25-2024--18-21-53 Click on searched first report: Dashboard
01-25-2024--18-21-53 Mat-tooltip attribute is 'Unsubscribe'. Calling unSubscribeReport.
01-25-2024--18-22-05 Mat-tooltip attribute is "Unsubscribe". Calling unSubscribeReport.
01-25-2024--18-21-53 Calling subscribeReport.
01-25-2024--18-21-53 Clicking on Profile icon
01-25-2024--18-21-53 Clicking on Logout
01-25-2024--18-21-53 Login as Subscribed user
01-25-2024--18-21-53 Wait: 2000 milliseconds
01-25-2024--18-21-53  Clicking on the global search input field, Clearing the existing text, Typing "Dashboard" into the global search input field
01-25-2024--18-21-53 Click on searched first report: Dashboard
01-25-2024--18-21-53 Clicking on the report comment
01-25-2024--18-21-53 Waiting: 3000 milliseconds
01-25-2024--18-21-53 Getting the comment count before adding a new comment
01-25-2024--18-22-43 Typing the comment in the comment input field
01-25-2024--18-22-43 Clicking on the comment button
01-25-2024--18-22-43 Verifying the toaster notification for successful comment addition
01-25-2024--18-22-43 Wait:3000 milliseconds
01-25-2024--18-22-43 Checking if the comment count increased by 1
01-25-2024--18-22-48 comment count increased by 1
01-25-2024--18-22-48 Executing beforeEach hook
01-25-2024--18-23-05 TC-018 Verify if you are able to see data on Report Stats for Zenoptics & Backend Stats
01-25-2024--18-23-05  Wait: 5000 milliseconds
01-25-2024--18-23-05 Open Menu: Menu opened successfully
01-25-2024--18-23-05 Getting the text of all side menu links
01-25-2024--18-23-11  Clicked on side menu link: Report Statistics
01-25-2024--18-23-05 Verify Report is available under usage count
01-25-2024--18-25-28 Executing beforeEach hook
01-25-2024--18-25-34 TC-019 Verfiy the multiview functionality
01-25-2024--18-25-34  Wait: 5000 milliseconds
01-25-2024--18-25-34 Open Menu: Menu opened successfully
01-25-2024--18-25-34 Verify Report is opened in multiview
01-25-2024--18-25-34 Clicking on grid view
01-25-2024--18-25-34 Verify Gridview container exist
01-25-2024--18-25-34 Open report from gridview
01-25-2024--18-25-34 Clicking on back
01-25-2024--18-25-34 Open report from gridview
01-25-2024--18-25-34 Clicking on back
01-25-2024--18-25-34 Clicking on multiview button
01-25-2024--18-25-34 Clicking on multiview enabled button
01-25-2024--18-25-34 Verifying the existence of the split view
01-25-2024--18-25-34 Verifying the number of reports in split view
01-25-2024--18-25-34 Clicking on the single view button
01-25-2024--18-25-34 Verifying the existence of the single view
01-25-2024--18-25-34 Verifying the number of reports in single view
01-25-2024--18-25-58 Executing beforeEach hook
01-25-2024--18-26-18 TC-020 Verify favoriting a report
01-25-2024--18-26-18 Wait: 2000 milliseconds
01-25-2024--18-26-18  Clicking on the global search input field, Clearing the existing text, Typing "Global Analysis " into the global search input field
01-25-2024--18-26-18 Click on searched first report: Global Analysis 
01-25-2024--18-26-18 Finding report header and navigating to the first child mat-icon
01-25-2024--18-26-30 Checking if the mat-tooltip attribute is Unfavorite
01-25-2024--18-26-30 Clicking on Unfavourite report 
01-25-2024--18-26-18 Clicking on favourite report
01-25-2024--18-26-37 Executing beforeEach hook
01-25-2024--18-26-53 TC-022 Email report link and verify if it can be sent to the people added in recipients field
01-25-2024--18-26-53 Wait: 2000 milliseconds
01-25-2024--18-26-53  Clicking on the global search input field, Clearing the existing text, Typing "Global Analysis" into the global search input field
01-25-2024--18-26-53 Click on searched first report: Global Analysis
01-25-2024--18-26-53 Clicking on send Email icon
01-25-2024--18-26-53 Type Email ID to send
01-25-2024--18-26-53 Type email message 'please find below your report
01-25-2024--18-26-53 Click on send email button
01-25-2024--18-27-11 Executing beforeEach hook
01-25-2024--18-27-26  Wait: 5000 milliseconds
01-25-2024--18-27-26 Open Menu: Menu opened successfully
01-25-2024--18-27-26  Opening LDAP Configuration tab
01-25-2024--18-27-26  Wait: 5000 milliseconds
01-25-2024--18-27-26 Open Menu: Menu opened successfully
01-25-2024--18-27-26  Configuring LDAP with URL: ldap://192.168.1.4:3268
01-25-2024--18-27-26  Configuring LDAP Bind DN: svc_zenoptics@zenoptics.com
01-25-2024--18-27-26 Configuring LDAP Password DN: Zen95113!
01-25-2024--18-27-26  Configuring LDAP User Base: OU=zenoptics-IT,DC=zenoptics,DC=com 
01-25-2024--18-27-26 Configuring LDAP Attributes: sAMAccountName
01-25-2024--18-27-26 Clicking on update button
01-25-2024--18-28-16 Executing beforeEach hook
01-25-2024--18-28-29 TC-024 Verify extractor scheduling functionality
01-25-2024--18-28-29  Wait: 5000 milliseconds
01-25-2024--18-28-29 Open Menu: Menu opened successfully
01-25-2024--18-28-29 Clicking on Administrator Settings
01-25-2024--18-28-29 Clicking on Source Connection settings
01-25-2024--18-28-29 Clicking on body
01-25-2024--18-28-29 Clicking on the search connection button.
01-25-2024--18-28-29  Typing connection name 'Tableau_C8' in the search input.
01-25-2024--18-28-29  Navigating to the third table on the page
01-25-2024--18-28-29 Clicking on the "Schedule Job" button for the first item in the table
01-25-2024--18-28-29 Clicking on the submit button in the user form
01-25-2024--18-28-29 Verifying the existence and text of the toaster notification
01-25-2024--18-29-16 Executing beforeEach hook
01-25-2024--18-29-28  Wait: 5000 milliseconds
01-25-2024--18-29-28 Open Menu: Menu opened successfully
01-25-2024--18-29-28  Wait: 5000 milliseconds
01-25-2024--18-29-28 Open Menu: Menu opened successfully
01-25-2024--18-29-53 Executing beforeEach hook
01-25-2024--18-30-10 TC-027 Verify Report types page
01-25-2024--18-30-10  Wait: 5000 milliseconds
01-25-2024--18-30-10 Open Menu: Menu opened successfully
01-25-2024--18-30-10 Getting the text of all side menu links
01-25-2024--18-30-18  Clicked on side menu link: Report Types
01-25-2024--18-30-10  Wait: 5000 milliseconds
01-25-2024--18-30-10 Open Menu: Menu opened successfully
01-25-2024--18-30-23 Executing beforeEach hook
01-25-2024--18-30-41 TC-028 Verify Categorized Reports page
01-25-2024--18-30-41  Wait: 5000 milliseconds
01-25-2024--18-30-41 Open Menu: Menu opened successfully
01-25-2024--18-30-41 Clicking on Administrator Settings
01-25-2024--18-30-41 Clicking on Steward Management
01-25-2024--18-30-41 Clicking on Categorized Reports
01-25-2024--18-30-41 Select category: QA1
01-25-2024--18-30-53 Executing beforeEach hook
01-25-2024--18-31-13 TC_029 Verify Compnay Logo Uploading
01-25-2024--18-31-16 Executing beforeEach hook
01-25-2024--18-31-37 TC-032_1 Verify Updating a workflow including updating shared users , adding reports,removing reports and changing the order of reports
01-25-2024--18-31-37  Wait: 5000 milliseconds
01-25-2024--18-31-37 Open Menu: Menu opened successfully
01-25-2024--18-31-37 Getting the text of all side menu links
01-25-2024--18-31-45  Clicked on side menu link: Workflow
01-25-2024--18-31-45 Actual Text:
01-25-2024--18-31-46 Actual Text:
01-25-2024--18-31-46 Actual Text:
01-25-2024--18-31-46 Actual Text:
01-25-2024--18-31-47 Actual Text:
01-25-2024--18-31-47 Actual Text:
01-25-2024--18-31-47 Actual Text:
01-25-2024--18-31-48 Executing beforeEach hook
01-25-2024--18-32-04 TC-032_2 Verify Updating a workflow including updating shared users , adding reports,removing reports and changing the order of reports
01-25-2024--18-32-04  Wait: 5000 milliseconds
01-25-2024--18-32-04 Open Menu: Menu opened successfully
01-25-2024--18-32-04 Getting the text of all side menu links
01-25-2024--18-32-12  Clicked on side menu link: Workflow
01-25-2024--18-32-12 Actual Text:
01-25-2024--18-32-13 Actual Text:
01-25-2024--18-32-13 Actual Text:
01-25-2024--18-32-13 Actual Text:
01-25-2024--18-32-14 Actual Text:
01-25-2024--18-32-14 Actual Text:
01-25-2024--18-32-14 Actual Text:
01-25-2024--18-32-15 Executing beforeEach hook
01-25-2024--18-32-31 TC-034 Switching between classic and modern dashboard
01-25-2024--18-32-31 Clicking on Profile icon
01-25-2024--18-32-31 Clicking on dashboard setting icon
01-25-2024--18-32-31 Toggle dashboard style
01-25-2024--18-32-39 Switching from 'modern' to 'classic'
01-25-2024--18-32-39 Clicking on Save button
01-25-2024--18-32-39 Verifying the existence of the dashboard container
01-25-2024--18-32-43 Executing beforeEach hook
01-25-2024--18-33-03 TC-035 Verify the Experimental flags for dashboard personalization
01-25-2024--18-33-03  Wait: 5000 milliseconds
01-25-2024--18-33-03 Open Menu: Menu opened successfully
01-25-2024--18-33-03 Click on Home Icon
01-25-2024--18-33-03  Wait: 5000 milliseconds
01-25-2024--18-33-03 Open Menu: Menu opened successfully
01-25-2024--18-33-03 Click on Home Icon
01-25-2024--18-33-03  Wait: 5000 milliseconds
01-25-2024--18-33-03 Open Menu: Menu opened successfully
01-25-2024--18-33-03 Clicking on Profile icon
01-25-2024--18-33-03 Clicking on dashboard setting icon
01-25-2024--18-33-03  Wait: 5000 milliseconds
01-25-2024--18-33-03 Open Menu: Menu opened successfully
01-25-2024--18-33-03 Clicking on Profile icon
01-25-2024--18-33-03 Clicking on dashboard setting icon
01-25-2024--18-34-09 Executing beforeEach hook
01-25-2024--18-34-32 TC-038 Verify Pinning and Unpinning workflow from dashboard
01-25-2024--18-34-32 Clicking on Profile icon
01-25-2024--18-34-32 Clicking on dashboard setting icon
01-25-2024--18-34-50 Executing beforeEach hook
01-25-2024--18-35-06 TC-039 Verify Pinning and Unpinning workflow from workflow page
01-25-2024--18-35-06 Clicking on Profile icon
01-25-2024--18-35-06 Clicking on dashboard setting icon
01-25-2024--18-35-27 Executing beforeEach hook
01-25-2024--18-35-41 TC-042_2 Verify back button and refresh works in below pages in the application
01-25-2024--18-35-41 Login application: Login Successful
01-25-2024--18-35-41  Wait: 5000 milliseconds
01-25-2024--18-35-41 Open Menu: Menu opened successfully
01-25-2024--18-35-41 Getting the text of all side menu links
01-25-2024--18-36-15  Clicked on side menu link: Workflow
01-25-2024--18-35-41  Click side menu link: Workflow
01-25-2024--18-35-41 Wait: 4000 milliseconds
01-25-2024--18-35-41 Navigate: Go back to the dashboard
01-25-2024--18-35-41 Reload page: Page reloaded successfully
01-25-2024--18-35-41 Login application: Login Successful
01-25-2024--18-35-41  Wait: 5000 milliseconds
01-25-2024--18-35-41 Open Menu: Menu opened successfully
01-25-2024--18-35-41 Getting the text of all side menu links
01-25-2024--18-36-51  Clicked on side menu link: Categories
01-25-2024--18-35-41  Click side menu link: Categories
01-25-2024--18-35-41 Wait: 4000 milliseconds
01-25-2024--18-35-41 Navigate: Go back to the dashboard
01-25-2024--18-35-41 Reload page: Page reloaded successfully
01-25-2024--18-35-41 Login application: Login Successful
01-25-2024--18-35-41  Wait: 5000 milliseconds
01-25-2024--18-35-41 Open Menu: Menu opened successfully
01-25-2024--18-35-41 Getting the text of all side menu links
01-25-2024--18-37-27  Clicked on side menu link: BI Glossary
01-25-2024--18-35-41  Click side menu link: BI Glossary
01-25-2024--18-35-41 Wait: 4000 milliseconds
01-25-2024--18-35-41 Navigate: Go back to the dashboard
01-25-2024--18-35-41 Reload page: Page reloaded successfully
01-25-2024--18-35-41 Login application: Login Successful
01-25-2024--18-35-41  Wait: 5000 milliseconds
01-25-2024--18-35-41 Open Menu: Menu opened successfully
01-25-2024--18-35-41 Getting the text of all side menu links
01-25-2024--18-38-01  Clicked on side menu link: Report Types
01-25-2024--18-35-41  Click side menu link: Report Types
01-25-2024--18-35-41 Wait: 4000 milliseconds
01-25-2024--18-35-41 Navigate: Go back to the dashboard
01-25-2024--18-35-41 Reload page: Page reloaded successfully
01-25-2024--18-38-09 Executing beforeEach hook
01-25-2024--18-38-29 TC-042_3 Verify back button and refresh works in below pages in the application
01-25-2024--18-38-29  Wait: 5000 milliseconds
01-25-2024--18-38-29 Open Menu: Menu opened successfully
01-25-2024--18-38-29 Clicking on Steward Manegement
01-25-2024--18-38-29 Clicking on Bi Dictionary
01-25-2024--18-38-29 Click back
01-25-2024--18-38-29 Reload: page Reload
01-25-2024--18-38-41 Executing beforeEach hook
01-25-2024--18-38-59 TC-042_4 Verify back button and refresh works in below pages in the application
01-25-2024--18-38-59  Wait: 5000 milliseconds
01-25-2024--18-38-59 Open Menu: Menu opened successfully
01-25-2024--18-38-59 Getting the text of all side menu links
01-25-2024--18-39-09  Clicked on side menu link: Workflow
01-25-2024--18-39-09 Actual Text:
01-25-2024--18-39-09 Workflow name matched. Performing actions...
01-25-2024--18-39-11 Actual Text:
01-25-2024--18-39-11 Actual Text:
01-25-2024--18-39-11 Actual Text:
01-25-2024--18-39-11 Actual Text:
01-25-2024--18-39-12 Actual Text:
01-25-2024--18-39-12 Actual Text:
01-25-2024--18-39-14 Executing beforeEach hook
01-25-2024--18-39-33 TC-042_5 Verify back button and refresh works in below pages in the application
01-25-2024--18-39-46 Executing beforeEach hook
01-25-2024--18-40-07 TC-046 Verify the pagination is maintained when Back button is cliked in BI Dictionary
01-25-2024--18-40-07  Wait: 5000 milliseconds
01-25-2024--18-40-07 Open Menu: Menu opened successfully
01-25-2024--18-40-07  Wait: 5000 milliseconds
01-25-2024--18-40-07 Open Menu: Menu opened successfully
01-25-2024--18-40-07 Clicking on Administrator Settings
01-25-2024--18-40-07 Clicking on Source Connection settings
01-25-2024--18-40-07 Clicking on body
01-25-2024--18-40-07  Wait: 5000 milliseconds
01-25-2024--18-40-07 Open Menu: Menu opened successfully
01-25-2024--18-40-07  Wait: 5000 milliseconds
01-25-2024--18-40-07 Open Menu: Menu opened successfully
01-25-2024--18-40-07 Clicking on Administrator Settings
01-25-2024--18-40-07 Clicking on Report type testing
01-25-2024--18-40-07 Clicking on page body
01-25-2024--18-40-41 Executing beforeEach hook
01-25-2024--18-40-57 TC-050 Verify Creating a Newly created User and verify accessing the application and dashboard
01-25-2024--18-40-57  Wait: 5000 milliseconds
01-25-2024--18-40-57 Open Menu: Menu opened successfully
01-25-2024--18-40-57 Clicking on Profile icon
01-25-2024--18-40-57 Clicking on Logout
01-25-2024--18-40-57  Wait: 5000 milliseconds
01-25-2024--18-40-57 Open Menu: Menu opened successfully
01-25-2024--18-41-38 Executing beforeEach hook
01-25-2024--18-41-40 TC-038 Verify pinning/unpinning categories from dashboard page
01-25-2024--18-41-40 Clicking on Profile icon
01-25-2024--18-41-40 Clicking on dashboard setting icon
01-25-2024--18-41-57 Executing beforeEach hook
01-25-2024--18-42-06 TC-038 Verify pinning/unpinning categories from dashboard page
01-25-2024--18-42-06 Clicking on Profile icon
01-25-2024--18-42-06 Clicking on dashboard setting icon
01-25-2024--18-42-33 Executing beforeEach hook
01-25-2024--18-42-50 TC-038 Verify pinning/unpinning categories from dashboard page
01-25-2024--18-42-50 Clicking on Profile icon
01-25-2024--18-42-50 Clicking on dashboard setting icon
01-25-2024--18-43-07 Executing beforeEach hook
01-25-2024--18-43-10 TC-054 Verify pinning/unpinning categories from categories page
01-25-2024--18-43-10 Clicking on Profile icon
01-25-2024--18-43-10 Clicking on dashboard setting icon
01-25-2024--18-43-31 Executing beforeEach hook
01-25-2024--18-43-33 TC-055 Verify pinning/unpinning subcategories from subcategories page
01-25-2024--18-43-33 Clicking on Profile icon
01-25-2024--18-43-33 Clicking on dashboard setting icon
01-25-2024--18-44-04 Executing beforeEach hook
01-25-2024--18-44-23 TC-056 Verify the Single view with Multiple reports open
01-25-2024--18-44-23  Wait: 5000 milliseconds
01-25-2024--18-44-23 Open Menu: Menu opened successfully
01-25-2024--18-44-50 Executing beforeEach hook
01-25-2024--18-45-09 TC-057 Verify the Split view with Multiple reports open
01-25-2024--18-45-09  Wait: 5000 milliseconds
01-25-2024--18-45-09 Open Menu: Menu opened successfully
01-25-2024--18-45-30 Executing beforeEach hook
01-25-2024--18-45-50 TC-058 Verify scheduling auto-refresh options in split View
01-25-2024--18-45-50  Wait: 5000 milliseconds
01-25-2024--18-45-50 Open Menu: Menu opened successfully
01-25-2024--18-47-29 Executing beforeEach hook
01-25-2024--18-47-40 TC-059 Verify scheduling auto-refresh options in Single View
01-25-2024--18-47-40  Wait: 5000 milliseconds
01-25-2024--18-47-40 Open Menu: Menu opened successfully
01-25-2024--18-49-07 Executing beforeEach hook
01-25-2024--18-49-29 C-60 Verify scheduling auto-refresh in Multi View
01-25-2024--18-49-29  Wait: 5000 milliseconds
01-25-2024--18-49-29 Open Menu: Menu opened successfully
01-25-2024--18-51-03 Executing beforeEach hook
01-25-2024--18-51-27 TC-061 Verify the Rating, View Count and report info are displayed correctly for the search results in Quick Search Page
01-25-2024--18-51-27 Wait: 2000 milliseconds
01-25-2024--18-51-27  Clicking on the global search input field, Clearing the existing text, Typing "Global Analysis" into the global search input field
01-25-2024--18-51-40 Executing beforeEach hook
01-25-2024--18-52-00 TC-062 Verify the Rating, View Count and report info are displayed correctly for the search results in Advanced Search Page
01-25-2024--18-52-13 Executing beforeEach hook
01-25-2024--18-52-40 TC-063 Verify new workflow created and delete successfully
01-25-2024--18-52-40  Wait: 5000 milliseconds
01-25-2024--18-52-40 Open Menu: Menu opened successfully
01-25-2024--18-52-40 Getting the text of all side menu links
01-25-2024--18-52-48  Clicked on side menu link: Reports
01-25-2024--18-52-52 Wait: 2000 milliseconds
01-25-2024--18-52-52  Clicking on the global search input field, Clearing the existing text, Typing "0511sheet1" into the global search input field
01-25-2024--18-52-52 Click on searched first report: 0511sheet1
01-25-2024--18-52-40 Wait: 2000 milliseconds
01-25-2024--18-52-40  Clicking on the global search input field, Clearing the existing text, Typing "Global map" into the global search input field
01-25-2024--18-52-40 Click on searched first report: Global map
01-25-2024--18-52-40  Wait: 5000 milliseconds
01-25-2024--18-52-40 Open Menu: Menu opened successfully
01-25-2024--18-52-40 Getting the text of all side menu links
01-25-2024--18-53-25  Clicked on side menu link: Workflow
01-25-2024--18-53-28 Executing beforeEach hook
01-25-2024--18-53-49 TC-064 Tableau Connector Delete
01-25-2024--18-53-49  Wait: 5000 milliseconds
01-25-2024--18-53-49 Open Menu: Menu opened successfully
01-25-2024--18-53-49 Clicking on Administrator Settings
01-25-2024--18-53-49 Clicking on Source Connection settings
01-25-2024--18-53-49 Clicking on body
01-25-2024--18-54-04 Test suite completed
