01-29-2024--11-00-57 Executing beforeEach hook
01-29-2024--11-01-17 Executing beforeEach hook
01-29-2024--11-01-36 TC_0002 Add category to whatsNew
01-29-2024--11-01-36  Wait: 5000 milliseconds
01-29-2024--11-01-37 Open Menu: Menu opened successfully
01-29-2024--11-01-37 Clicking on Administrator Settings
01-29-2024--11-01-37 Clicking on Steward Management
01-29-2024--11-01-37 Clicking on Categorized Reports
01-29-2024--11-01-57 Executing beforeEach hook
01-29-2024--11-02-09 TC-001_Verify Links in the Side Panel are displayed properly (ZEN2022-TC-43)
01-29-2024--11-02-09  Wait: 5000 milliseconds
01-29-2024--11-02-09 Open Menu: Menu opened successfully
01-29-2024--11-02-09 Wait: 2000 milliseconds
01-29-2024--11-02-22 Side menu links verified successfully
01-29-2024--11-02-22 Side menu links verified successfully
01-29-2024--11-02-22 Side menu links verified successfully
01-29-2024--11-02-22 Side menu links verified successfully
01-29-2024--11-02-22 Side menu links verified successfully
01-29-2024--11-02-22 Side menu links verified successfully
01-29-2024--11-02-22 Side menu links verified successfully
01-29-2024--11-02-22 Side menu links verified successfully
01-29-2024--11-02-22 Side menu links verified successfully
01-29-2024--11-02-22 Side menu links verified successfully
01-29-2024--11-02-22 Side menu links verified successfully
01-29-2024--11-02-26 Executing beforeEach hook
01-29-2024--11-02-33 TC-002_1 Verify clicking on all the links on left nav bar expect Reports (ZEN2022-TC-44)
01-29-2024--11-02-33  Wait: 5000 milliseconds
01-29-2024--11-02-33 Open Menu: Menu opened successfully
01-29-2024--11-02-40  Clicking on navbar link: Categories
01-29-2024--11-02-40 Verifying URL includes: /categories
01-29-2024--11-02-40  Clicking on navbar link: Workflows
01-29-2024--11-02-40 Verifying URL includes: /workflows
01-29-2024--11-02-40  Clicking on navbar link: BI Glossary
01-29-2024--11-02-40 Verifying URL includes: /biglossary
01-29-2024--11-02-55 Executing beforeEach hook
01-29-2024--11-03-02 TC-002_2 Verify clicking Reports and its sub links (ZEN2022-TC-44)
01-29-2024--11-03-02  Wait: 5000 milliseconds
01-29-2024--11-03-02 Open Menu: Menu opened successfully
01-29-2024--11-03-02 Getting the text of all side menu links
01-29-2024--11-03-09  Clicked on side menu link: Reports
01-29-2024--11-03-09  Clicking on navbar link: My Reports
01-29-2024--11-03-09 Verifying URL includes: /myReports
01-29-2024--11-03-09  Clicking on navbar link: Favorites
01-29-2024--11-03-09 Verifying URL includes: /favorites
01-29-2024--11-03-09  Clicking on navbar link: What's New
01-29-2024--11-03-09 Verifying URL includes: /whatsNew
01-29-2024--11-03-09  Clicking on navbar link: Recently Viewed
01-29-2024--11-03-09 Verifying URL includes: /recentlyViewed
01-29-2024--11-03-26 Executing beforeEach hook
01-29-2024--11-03-32 TC-003 Verify performing search for a Report from Search bar (ZEN2022-TC-45)
01-29-2024--11-03-32 Wait: 2000 milliseconds
01-29-2024--11-03-32  Clicking on the global search input field, Clearing the existing text, Typing "Global Analysis" into the global search input field
01-29-2024--11-03-43 Executing beforeEach hook
01-29-2024--11-03-47 TC-004 Verify all the 3 views (List, Grid, Thumbnail) in My Reports, Favorites, What's New, Recently Viewed
01-29-2024--11-03-47  Wait: 5000 milliseconds
01-29-2024--11-03-47 Open Menu: Menu opened successfully
01-29-2024--11-03-47 Getting the text of all side menu links
01-29-2024--11-03-57  Clicked on side menu link: Reports
01-29-2024--11-03-47  Clicking on the "My Reports" tab
01-29-2024--11-03-48 Clicking on the Thumbnail View
01-29-2024--11-03-48 Verifying the existence of the Thumbnail Container
01-29-2024--11-03-48 Clicking on the List View
01-29-2024--11-03-48 Verifying the existence of the List Container
01-29-2024--11-03-48 Clicking on the Grid View
01-29-2024--11-03-48 Verifying the existence of the Grid Container
01-29-2024--11-03-48  Wait: 5000 milliseconds
01-29-2024--11-03-48 Open Menu: Menu opened successfully
01-29-2024--11-03-48 Getting the text of all side menu links
01-29-2024--11-04-06  Clicked on side menu link: Reports
01-29-2024--11-03-48  Clicking on the "Favorites" tab
01-29-2024--11-03-48 Clicking on the Thumbnail View
01-29-2024--11-03-48 Verifying the existence of the Thumbnail Container
01-29-2024--11-03-48 Clicking on the List View
01-29-2024--11-03-48 Verifying the existence of the List Container
01-29-2024--11-03-48 Clicking on the Grid View
01-29-2024--11-03-48 Verifying the existence of the Grid Container
01-29-2024--11-03-48  Wait: 5000 milliseconds
01-29-2024--11-03-48 Open Menu: Menu opened successfully
01-29-2024--11-03-48 Getting the text of all side menu links
01-29-2024--11-04-13  Clicked on side menu link: Reports
01-29-2024--11-03-48  Clicking on the "What's New" tab
01-29-2024--11-03-48 Clicking on the Thumbnail View
01-29-2024--11-03-48 Verifying the existence of the Thumbnail Container
01-29-2024--11-03-48 Clicking on the List View
01-29-2024--11-03-48 Verifying the existence of the List Container
01-29-2024--11-03-48 Clicking on the Grid View
01-29-2024--11-03-48 Verifying the existence of the Grid Container
01-29-2024--11-03-48  Wait: 5000 milliseconds
01-29-2024--11-03-48 Open Menu: Menu opened successfully
01-29-2024--11-03-48 Getting the text of all side menu links
01-29-2024--11-04-20  Clicked on side menu link: Reports
01-29-2024--11-03-48  Clicking on the "Recently Viewed" tab
01-29-2024--11-03-48 Clicking on the Thumbnail View
01-29-2024--11-03-48 Verifying the existence of the Thumbnail Container
01-29-2024--11-03-48 Clicking on the List View
01-29-2024--11-03-48 Verifying the existence of the List Container
01-29-2024--11-03-48 Clicking on the Grid View
01-29-2024--11-03-48 Verifying the existence of the Grid Container
01-29-2024--11-04-26 Executing beforeEach hook
01-29-2024--11-04-31 TC-005 Verify manual upload thumbnail generation
01-29-2024--11-04-31  Wait: 5000 milliseconds
01-29-2024--11-04-31 Open Menu: Menu opened successfully
01-29-2024--11-04-31 Clicking on Administrator Settings
01-29-2024--11-04-31 Clicking on Application Settings
01-29-2024--11-04-31 Clicking on Thumbnail Settings
01-29-2024--11-04-31 Typed P&L Forecast in the search input for thumbnail settings
01-29-2024--11-04-31 Verified that the search card has the expected text
01-29-2024--11-04-31 Selected file at path: C:\Users\Ankitha\cypressautomation\cypress\fixtures\companylogo.svg
01-29-2024--11-04-31 Clicked on "Upload Thumbnail Images" button
01-29-2024--11-04-31 Verified that the state column contains "Admin Uploaded"
01-29-2024--11-04-47 Executing beforeEach hook
01-29-2024--11-04-52 TC-010 Verify if the fields in BI Dictionary are showing report using this field and authorized user.
01-29-2024--11-04-52  Wait: 5000 milliseconds
01-29-2024--11-04-52 Open Menu: Menu opened successfully
01-29-2024--11-04-52 Clicking on Steward Manegement
01-29-2024--11-04-52 Clicking on Bi Dictionary
01-29-2024--11-04-52 Wait: 2000 milliseconds
01-29-2024--11-04-52 Typed "Account Drill" in the search field on the first page
01-29-2024--11-04-52 Wait: for 1000 milliseconds
01-29-2024--11-04-52 Verified that the search card contains "Account Drill"
01-29-2024--11-04-52 Clicked on the action column
01-29-2024--11-04-52 Clicked on the search field on the first page
01-29-2024--11-04-52 Typed " Sales Analysis " in the search field on the second page
01-29-2024--11-04-52 Verified that the search card contains " Sales Analysis "
01-29-2024--11-04-52 Wait: 1000 milliseconds
01-29-2024--11-04-52 Clicked on the authorized user button
01-29-2024--11-04-52 Clicked on the pagination drop-down
01-29-2024--11-04-52  Verified that the authorized user list has 28 items
01-29-2024--11-05-13 Executing beforeEach hook
01-29-2024--11-05-15 TC-011 Verify if the fields in BI Glossary are showing report using this field
01-29-2024--11-05-15  Wait: 5000 milliseconds
01-29-2024--11-05-15 Open Menu: Menu opened successfully
01-29-2024--11-05-15 Clicking on Steward Manegement
01-29-2024--11-05-15 Clicking on Bi Dictionary
01-29-2024--11-05-15  Typed "Account Drill" in the search field on the first page
01-29-2024--11-05-15  Verified that the search card contains "Account Drill"
01-29-2024--11-05-15 Clicked on the approved checkbox
01-29-2024--11-05-15 Clicking on the update button
01-29-2024--11-05-15  Wait: 5000 milliseconds
01-29-2024--11-05-15 Open Menu: Menu opened successfully
01-29-2024--11-05-15 Getting the text of all side menu links
01-29-2024--11-05-29  Clicked on side menu link: BI Glossary
01-29-2024--11-07-20 Executing beforeEach hook
01-29-2024--11-07-26 TC_012 Launch Few Report & see there is no error
01-29-2024--11-07-26  Wait: 5000 milliseconds
01-29-2024--11-07-26 Open Menu: Menu opened successfully
01-29-2024--11-07-26  Wait: 5000 milliseconds
