TC-001_Add Custom Attribute using RG Certification
Wait: 2000 milliseconds before searching
Search and select report: RC4
TC-001_Add Custom Attribute using RG Certification
Wait: 2000 milliseconds before searching
Search and select report: RC4
TC-032_1 Verify Updating a workflow including adding reports
Wait: 5000 milliseconds
Opened the menu
Clicked on side menu link: Workflow
TC-032_1 Verify Updating a workflow including adding reports
Wait: 5000 milliseconds
Opened the menu
Clicked on side menu link: Workflow
