{
  "stats": {
    "suites": 1,
    "tests": 1,
    "passes": 1,
    "pending": 0,
    "failures": 0,
    "start": "2023-12-05T15:21:53.788Z",
    "end": "2023-12-05T15:24:10.226Z",
    "duration": 136438,
    "testsRegistered": 1,
    "passPercent": 100,
    "pendingPercent": 0,
    "other": 0,
    "hasOther": false,
    "skipped": 0,
    "hasSkipped": false
  },
  "results": [
    {
      "uuid": "920765ac-ba0f-4dc8-9882-f8c060550768",
      "title": "",
      "fullFile": "cypress\\e2e\\smoke_test_part_3.cy.js",
      "file": "cypress\\e2e\\smoke_test_part_3.cy.js",
      "beforeHooks": [],
      "afterHooks": [],
      "tests": [],
      "suites": [
        {
          "uuid": "b6498cdd-63c4-4ffb-932d-b80c09434a6e",
          "title": "Smoke Suite",
          "fullFile": "",
          "file": "",
          "beforeHooks": [],
          "afterHooks": [],
          "tests": [
            {
              "title": "Verify Creating a Newly created User and verify accessing the application and dashboard",
              "fullTitle": "Smoke Suite Verify Creating a Newly created User and verify accessing the application and dashboard",
              "timedOut": null,
              "duration": 120912,
              "state": "passed",
              "speed": "slow",
              "pass": true,
              "fail": false,
              "pending": false,
              "context": null,
              "code": "const {\n  email,\n  firstName,\n  lastName,\n  password\n} = (0, _fakerData.randomData)();\n//log random data\ncy.log('Generated Random Data:');\ncy.log(`Email: ${email}`);\ncy.log(`First Name: ${firstName}`);\ncy.log(`Last Name: ${lastName}`);\ncy.log(`Password: ${password}`);\ndashboard.openMenu();\nsetting.openUsersettings();\nsetting.createActiveUser(firstName, password, lastName, email);\ndashboard.clickProfile();\ndashboard.logout();\nlogins.loginUser2(Cypress.env(), firstName, password);\ndashboard.openMenu();",
              "err": {},
              "uuid": "6de23e3a-476b-41c5-9880-92e33eef9268",
              "parentUUID": "b6498cdd-63c4-4ffb-932d-b80c09434a6e",
              "isHook": false,
              "skipped": false
            }
          ],
          "suites": [],
          "passes": [
            "6de23e3a-476b-41c5-9880-92e33eef9268"
          ],
          "failures": [],
          "pending": [],
          "skipped": [],
          "duration": 120912,
          "root": false,
          "rootEmpty": false,
          "_timeout": 2000
        }
      ],
      "passes": [],
      "failures": [],
      "pending": [],
      "skipped": [],
      "duration": 0,
      "root": true,
      "rootEmpty": true,
      "_timeout": 2000
    }
  ],
  "meta": {
    "mocha": {
      "version": "7.0.1"
    },
    "mochawesome": {
      "options": {
        "quiet": false,
        "reportFilename": "mochawesome",
        "saveHtml": true,
        "saveJson": true,
        "consoleReporter": "spec",
        "useInlineDiffs": false,
        "code": true
      },
      "version": "7.1.3"
    },
    "marge": {
      "options": null,
      "version": "6.2.0"
    }
  }
}